\relax 
\catcode `"\active 
\citation{slideAula}
\citation{sebastianRaschka}
\citation{siteCodeBlocks}
\citation{slideAula}
\citation{sebastianRaschka}
\citation{uciIrisDataSet}
\citation{mathWorksSupervised}
\select@language{portuguese}
\@writefile{toc}{\select@language{portuguese}}
\@writefile{lof}{\select@language{portuguese}}
\@writefile{lot}{\select@language{portuguese}}
\@writefile{toc}{\contentsline {section}{\numberline {I}Introdu\IeC {\c c}\IeC {\~a}o}{1}}
\newlabel{sec:introducao}{{I}{1}}
\@writefile{toc}{\contentsline {subsection}{\numberline {\unhbox \voidb@x \hbox {I-A}}Motiva\IeC {\c c}\IeC {\~a}o}{1}}
\@writefile{toc}{\contentsline {subsection}{\numberline {\unhbox \voidb@x \hbox {I-B}}Objetivo}{1}}
\@writefile{toc}{\contentsline {subsection}{\numberline {\unhbox \voidb@x \hbox {I-C}}Metodologia}{1}}
\@writefile{toc}{\contentsline {section}{\numberline {II}Teoria}{1}}
\citation{uciIrisDataSet}
\bibstyle{IEEEtran}
\bibdata{referencias}
\@writefile{lof}{\contentsline {figure}{\numberline {1}{\ignorespaces F\IeC {\'o}rmula do m\IeC {\'e}todo QR que obt\IeC {\'e}m todos os autovalores e autovetores associados.}}{2}}
\newlabel{MetodoQR}{{1}{2}}
\@writefile{toc}{\contentsline {section}{\numberline {III}Proposta}{2}}
\@writefile{toc}{\contentsline {section}{\numberline {IV}Resultados}{2}}
\@writefile{lof}{\contentsline {figure}{\numberline {2}{\ignorespaces Pontos de classifica\IeC {\c c}\IeC {\~a}o baseado nos dados de entrada e nas tr\IeC {\^e}s poss\IeC {\'\i }veis classes de Iris.}}{2}}
\newlabel{GraficoLDA}{{2}{2}}
\@writefile{toc}{\contentsline {section}{\numberline {V}Conclus\IeC {\~a}o}{2}}
