\relax 
\catcode `"\active 
\citation{slideAula}
\citation{slideAula}
\citation{siteCodeBlocks}
\citation{slideAula}
\citation{dataScience}
\citation{uciIrisDataSet}
\citation{slideAula}
\citation{uciDataUser}
\citation{uciWholeSaleCustomers}
\citation{mathWorksUnsupervised}
\select@language{portuguese}
\@writefile{toc}{\select@language{portuguese}}
\@writefile{lof}{\select@language{portuguese}}
\@writefile{lot}{\select@language{portuguese}}
\@writefile{toc}{\contentsline {section}{\numberline {I}Introdu\IeC {\c c}\IeC {\~a}o}{1}}
\newlabel{sec:introducao}{{I}{1}}
\@writefile{toc}{\contentsline {subsection}{\numberline {\unhbox \voidb@x \hbox {I-A}}Motiva\IeC {\c c}\IeC {\~a}o}{1}}
\@writefile{toc}{\contentsline {subsection}{\numberline {\unhbox \voidb@x \hbox {I-B}}Objetivo}{1}}
\@writefile{toc}{\contentsline {subsection}{\numberline {\unhbox \voidb@x \hbox {I-C}}Metodologia}{1}}
\@writefile{toc}{\contentsline {section}{\numberline {II}Teoria}{1}}
\citation{slideAula}
\bibstyle{IEEEtran}
\bibdata{referencias}
\@writefile{toc}{\contentsline {section}{\numberline {III}Proposta}{2}}
\@writefile{toc}{\contentsline {section}{\numberline {IV}Resultados}{2}}
\@writefile{lof}{\contentsline {figure}{\numberline {1}{\ignorespaces Agrupamento para os dados do exerc\IeC {\'\i }cio 01.}}{2}}
\newlabel{GraficoExercicio01}{{1}{2}}
\@writefile{lof}{\contentsline {figure}{\numberline {2}{\ignorespaces Agrupamento para os dados da base HTRU.}}{2}}
\newlabel{GraficoExercicioHTRU}{{2}{2}}
\@writefile{lof}{\contentsline {figure}{\numberline {3}{\ignorespaces Agrupamento para os dados da base Seeds.}}{2}}
\newlabel{GraficoExercicioSeeds}{{3}{2}}
\@writefile{toc}{\contentsline {section}{\numberline {V}Conclus\IeC {\~a}o}{2}}
\@writefile{lof}{\contentsline {figure}{\numberline {4}{\ignorespaces Agrupamento para os dados da base Iris.}}{3}}
\newlabel{GraficoExercicioIris}{{4}{3}}
